astroid==2.0.4
Click==7.0
Flask==1.0.2
gevent==1.3.7
greenlet==0.4.15
gunicorn==19.9.0
isort==4.3.4
itsdangerous==1.1.0
Jinja2==2.10
lazy-object-proxy==1.3.1
MarkupSafe==1.1.0
mccabe==0.6.1
postgres==2.2.2
psycopg2-binary==2.7.6.1
pylint==2.1.1
python-dotenv==0.9.1
redis==2.10.6
six==1.11.0
typed-ast==1.1.0
Werkzeug==0.14.1
wrapt==1.10.11
yapf==0.24.0
